…
### Events in a given time range

You can get events in a given date range. By not specifying `vessels`,
the response will return results for all vessels.

``` r
gfw_event(event_type = "ENCOUNTER",
          start_date = "2020-01-01",
          end_date = "2020-01-02")
#> [1] "Downloading 282 events from GFW"
#> # A tibble: 282 × 17
#>    start               end                 eventId      eventType     lat    lon
#>    <dttm>              <dttm>              <chr>        <chr>       <dbl>  <dbl>
#>  1 2019-12-31 17:50:00 2020-01-01 03:00:00 4c547fe1bd0… encounter -17.9   -79.1 
#>  2 2019-12-17 14:10:00 2020-01-02 04:10:00 2cacbbe4a0c… encounter  67.5    15.5 
#>  3 2020-01-01 08:10:00 2020-01-01 11:10:00 dc46f3bf7da… encounter   0.993  -4.18
#>  4 2020-01-01 06:10:00 2020-01-01 20:10:00 7278387d3f6… encounter  24.6   119.  
#>  5 2020-01-01 10:20:00 2020-01-01 18:50:00 964ab8ab911… encounter  34.6   129.  
#>  6 2020-01-01 12:30:00 2020-01-01 17:50:00 3792aec35df… encounter  38.5   121.  
#>  7 2020-01-01 10:50:00 2020-01-01 15:40:00 de299550942… encounter   8.01  -13.5 
#>  8 2020-01-01 16:20:00 2020-01-01 21:10:00 55d211fba82… encounter  38.5   121.  
#>  9 2020-01-01 05:40:00 2020-01-01 13:00:00 1136954e706… encounter  21.2   111.  
#> 10 2020-01-01 10:30:00 2020-01-01 13:20:00 245565dd264… encounter  60.1   169.  
#> # ℹ 272 more rows
#> # ℹ 11 more variables: regions <list>, boundingBox <list>, distances <list>,
#> #   vesselId <chr>, vessel_name <chr>, vessel_ssvid <chr>, vessel_flag <chr>,
#> #   vessel_type <chr>, vessel_publicAuthorizations <list>,
#> #   vessel_nextPort <list>, event_info <list>
```
…
 # fishing events in user shapefile
test_polygon <- sf::st_bbox(c(xmin = -70,
                              xmax = -40,
                              ymin = -10,
                              ymax = 5),
  crs = 4326) |>
  sf::st_as_sfc() |>
  sf::st_as_sf()
gfw_event(event_type = "FISHING",
               start_date = "2020-10-01",
               end_date = "2020-10-31",
               region = test_polygon,
               region_source = "USER_SHAPEFILE")
#> [1] "Downloading 59 events from GFW"
#> # A tibble: 59 × 17
#>    start               end                 eventId        eventType    lat   lon
#>    <dttm>              <dttm>              <chr>          <chr>      <dbl> <dbl>
#>  1 2020-10-03 05:50:14 2020-10-05 03:35:27 b68b49e7e3655… fishing    4.73  -51.5
#>  2 2020-10-23 09:23:27 2020-10-23 14:23:03 a559f9c1a2fee… fishing    4.72  -51.5
#>  3 2020-10-01 12:09:55 2020-10-02 22:03:36 d8ed35e858292… fishing    4.73  -51.5
#>  4 2020-10-24 12:44:50 2020-10-24 13:37:16 9388ff85a3d81… fishing    0.267 -47.8
#>  5 2020-10-18 00:18:32 2020-10-18 04:04:43 2fd3ab7d16550… fishing    0.449 -47.8
#>  6 2020-10-17 17:59:45 2020-10-17 19:45:10 b08ba788b149c… fishing    0.222 -47.7
#>  7 2020-10-22 12:42:13 2020-10-22 17:58:59 22205188596dc… fishing   -0.121 -47.7
#>  8 2020-10-03 11:58:33 2020-10-03 19:30:08 92a28d8935c1c… fishing   -0.107 -47.7
#>  9 2020-10-18 23:15:26 2020-10-19 07:52:48 b40e1caf208b9… fishing    0.474 -47.8
#> 10 2020-10-18 21:29:13 2020-10-18 22:28:02 eb82a3cc27a9e… fishing    4.95  -51.6
#> # ℹ 49 more rows
#> # ℹ 11 more variables: regions <list>, boundingBox <list>, distances <list>,
#> #   vesselId <chr>, vessel_name <chr>, vessel_ssvid <chr>, vessel_flag <chr>,
#> #   vessel_type <chr>, vessel_publicAuthorizations <list>,
#> #   vessel_nextPort <lgl>, event_info <list>
```
…
To get a list of port visits for that vessel, you can use a single
`vesselId` of your interest:

``` r
id <- vessel_info$selfReportedInfo$vesselId
id
#> [1] "6632c9eb8-8009-abdb-baf9-b67d65f20510"
#> [2] "3c99c326d-dd2e-175d-626f-a3c488a4342b"

gfw_event(event_type = "PORT_VISIT",
          vessels = id[1],
          confidences = 4
          )
#> [1] "Downloading 25 events from GFW"
#> # A tibble: 25 × 16
#>    start               end                 eventId        eventType   lat    lon
#>    <dttm>              <dttm>              <chr>          <chr>     <dbl>  <dbl>
#>  1 2020-01-11 11:18:49 2020-01-15 11:54:49 889beb4fc4bfb… port_vis…  5.23  -4.02
#>  2 2020-02-23 12:44:03 2020-02-24 10:35:02 672bc20417b3c… port_vis… 16.9  -25.0 
#>  3 2020-03-05 13:28:59 2020-03-10 02:26:24 0d845cb306614… port_vis…  5.20  -4.02
#>  4 2020-06-20 12:33:45 2020-06-20 19:43:10 a8f5401a3bbec… port_vis… 14.6  -17.4 
#>  5 2019-11-15 14:15:11 2019-11-19 07:49:20 bbeed3f884a6f… port_vis…  5.20  -4.02
#>  6 2020-07-06 06:45:06 2020-07-12 09:13:39 6845cffacfe25… port_vis…  5.20  -4.02
#>  7 2019-12-06 11:02:09 2019-12-11 10:20:04 bcd967c59306c… port_vis…  5.20  -4.04
#>  8 2020-12-14 09:46:52 2020-12-22 16:54:09 9205a53a7b91d… port_vis…  5.20  -4.04
#>  9 2021-05-19 22:46:40 2021-06-08 08:54:49 ed0ffc8600077… port_vis… 14.7  -17.4 
#> 10 2020-04-01 05:55:58 2020-04-05 15:03:18 953e1cf8246db… port_vis…  5.23  -4.02
#> # ℹ 15 more rows
#> # ℹ 10 more variables: regions <list>, boundingBox <list>, distances <list>,
#> #   vesselId <chr>, vessel_name <chr>, vessel_ssvid <chr>, vessel_flag <chr>,
#> #   vessel_type <chr>, vessel_nextPort <lgl>, event_info <list>
```

But to get the whole event history, it’s better to use the whole vector
of `vesselId` for that vessel. Notice how the following request provides
more results than the previous one:

``` r
gfw_event(event_type = "PORT_VISIT",
          vessels = id, #using the whole vector of vesselIds
          confidences = 4
          )
#> [1] "Downloading 74 events from GFW"
#> # A tibble: 74 × 16
#>    start               end                 eventId        eventType   lat    lon
#>    <dttm>              <dttm>              <chr>          <chr>     <dbl>  <dbl>
#>  1 2019-09-29 05:40:18 2019-10-02 17:16:39 baa809792afe6… port_vis… 14.6  -17.4 
#>  2 2018-11-06 17:27:26 2018-11-11 09:43:00 a1e988d982768… port_vis…  5.23  -4.02
#>  3 2020-01-11 11:18:49 2020-01-15 11:54:49 889beb4fc4bfb… port_vis…  5.23  -4.02
#>  4 2017-04-13 10:07:49 2017-04-29 20:58:13 de2a5c8f51a93… port_vis… 14.6  -17.4 
#>  5 2020-02-23 12:44:03 2020-02-24 10:35:02 672bc20417b3c… port_vis… 16.9  -25.0 
#>  6 2016-10-04 17:15:47 2016-10-09 21:02:28 2d376318fda23… port_vis…  5.23  -4.02
#>  7 2020-06-20 12:33:45 2020-06-20 19:43:10 a8f5401a3bbec… port_vis… 14.6  -17.4 
#>  8 2017-05-13 07:10:29 2017-05-13 09:11:40 757664f40518d… port_vis… 14.7  -17.3 
#>  9 2017-05-08 07:01:08 2017-05-12 14:59:28 fa765a604c499… port_vis…  5.29  -4.02
#> 10 2015-12-29 14:52:13 2016-01-03 16:38:59 ecd93cc08b521… port_vis…  5.29  -4.01
#> # ℹ 64 more rows
#> # ℹ 10 more variables: regions <list>, boundingBox <list>, distances <list>,
#> #   vesselId <chr>, vessel_name <chr>, vessel_ssvid <chr>, vessel_flag <chr>,
#> #   vessel_type <chr>, vessel_nextPort <lgl>, event_info <list>
```
…
``` r
# Download the list of USA trawlers
usa_trawlers <- gfw_vessel_info(
  where = "flag='USA' AND geartypes='TRAWLERS'",
  search_type = "search",
  quiet = TRUE 
  )
# Set quiet = TRUE if you want the output to return silently
```

This list returns 6566 `vesselIds` belonging to 4200 vessels.

``` r
usa_trawlers$selfReportedInfo
#> # A tibble: 6,757 × 14
#>    index vesselId  ssvid shipname nShipname flag  callsign imo   messagesCounter
#>    <dbl> <chr>     <chr> <chr>    <chr>     <chr> <chr>    <chr>           <int>
#>  1     1 d32af732… 3680… SUPERMA… SUPERMAN… USA   WDJ8890  <NA>           267397
#>  2     1 5446e7cd… 3680… SUPERMA… SUPERMAN… USA   <NA>     <NA>             6184
#>  3     2 47b94476… 3668… ORION    ORION     USA   <NA>     <NA>            23007
#>  4     3 9f555214… 3680… PELICAN  PELICAN   USA   WDJ8253  <NA>           445303
#>  5     3 15cea26f… 3680… PELICAN  PELICAN   USA   <NA>     <NA>              407
#>  6     4 0dddd2a8… 3673… SHAMROCK SHAMROCK  USA   WDD8722  <NA>             2720
#>  7     4 695b254f… 3673… SHAMROCK SHAMROCK  USA   <NA>     <NA>              477
#>  8     4 ac994bda… 3673… <NA>     <NA>      USA   WDD8722  <NA>             3179
#>  9     5 bc29946f… 3667… ALEX     ALEX      USA   WDA2216  <NA>           891164
#> 10     5 0e4052b1… 3667… <NA>     <NA>      USA   WDA2216  <NA>             8403
#> # ℹ 6,747 more rows
#> # ℹ 5 more variables: positionsCounter <int>, sourceCode <list>,
#> #   matchFields <chr>, transmissionDateFrom <chr>, transmissionDateTo <chr>
```
…
> *Note*: `gfw_event()` can receive several `vesselIds` at a time but
> will fail when the character length of the whole request is too long
> (~100,000 characters). This means it will fail with error **HTTP 422:
> Unprocessable entity** when too many `vesselIds` are requested, this
> value can be around 2,800 `vesselIds` depending on the other
> parameters of the search.

For this example, we will send the `vesselIds` corresponding to the
first twenty vessels in the response:

``` r
each_USA_trawler <- usa_trawlers$selfReportedInfo[, c("index", "vesselId")] 
# how many vessels correspond to the first twenty vessels. 
(twenty_usa_trawlers <- each_USA_trawler %>% filter(index <= 20))
#> # A tibble: 54 × 2
#>    index vesselId                             
#>    <dbl> <chr>                                
#>  1     1 d32af7320-0748-9a63-abd7-48ad721e63b8
#>  2     1 5446e7cd1-1f75-4672-d859-01211df72fba
#>  3     2 47b944765-5819-b2ab-8c2e-cfc82bd2e82c
#>  4     3 9f5552145-50ed-92f4-4514-5177b1a6511d
#>  5     3 15cea26f5-57ad-acac-4cbf-b45cefb7ab04
#>  6     4 0dddd2a83-3626-24f1-0fe6-3c4d45bbb409
#>  7     4 695b254f7-7e6c-ff50-dc63-55139d9e0101
#>  8     4 ac994bdab-b59c-9fcc-659e-40179e5dddfb
#>  9     5 bc29946f2-2b0b-9613-054a-cd59327226d9
#> 10     5 0e4052b12-2e16-969f-d3e3-2a266be74255
#> # ℹ 44 more rows
```

There are 54 `vesselIds` corresponding to those 20 vessels.

Let’s pass the vector of `vesselIds` to Events API. Now get the list of
fishing events for these trawlers in January, 2020:

``` r
fishing_events <- gfw_event(event_type = "FISHING",
                            vessels = twenty_usa_trawlers$vesselId,
                            start_date = "2020-01-01",
                            end_date = "2020-02-01")
#> [1] "Downloading 63 events from GFW"
fishing_events
#> # A tibble: 63 × 17
#>    start               end                 eventId        eventType   lat    lon
#>    <dttm>              <dttm>              <chr>          <chr>     <dbl>  <dbl>
#>  1 2020-01-15 17:46:45 2020-01-15 21:34:32 b1907b472756f… fishing    38.1  -73.9
#>  2 2020-01-25 13:58:44 2020-01-26 13:47:48 6937c9bbb199e… fishing    39.8  -72.8
#>  3 2020-01-30 23:49:26 2020-01-31 04:34:08 90c53f1ca7571… fishing    38    -73.9
#>  4 2019-12-31 01:38:26 2020-01-02 05:06:56 b630325a08b11… fishing    41.4  -68.7
#>  5 2020-01-17 09:10:03 2020-01-17 17:57:00 e5d2760a2cd5e… fishing    41.5  -70.1
#>  6 2020-01-31 07:58:03 2020-01-31 13:32:38 ce97b3eedf575… fishing    42.8 -125. 
#>  7 2020-01-09 18:32:34 2020-01-09 19:20:15 2068a73ed9b3a… fishing    38.3  -73.6
#>  8 2020-01-14 23:39:33 2020-01-15 01:16:19 a8b50bdbf3713… fishing    37.8  -74.2
#>  9 2020-01-23 06:40:00 2020-01-23 07:48:45 5d37b7e7f124d… fishing    38.0  -73.9
#> 10 2020-01-31 17:27:10 2020-01-31 23:44:46 4658cdceebbf2… fishing    38.0  -73.9
#> # ℹ 53 more rows
#> # ℹ 11 more variables: regions <list>, boundingBox <list>, distances <list>,
#> #   vesselId <chr>, vessel_name <chr>, vessel_ssvid <chr>, vessel_flag <chr>,
#> #   vessel_type <chr>, vessel_publicAuthorizations <list>,
#> #   vessel_nextPort <lgl>, event_info <list>
```

The columns starting by `vessel` hold the vessel-related information for
each event: `vesselId`, `vessel_name`, `ssvid` (MMSI), `flag`,
`vessel type` and public authorizations.

``` r
fishing_events %>% 
  dplyr::select(starts_with("vessel"))
#> # A tibble: 63 × 7
#>    vesselId                     vessel_name vessel_ssvid vessel_flag vessel_type
#>    <chr>                        <chr>       <chr>        <chr>       <chr>      
#>  1 64907178b-b02a-f401-afa1-b3… SUSAN L     366211560    USA         fishing    
#>  2 35eb371c0-088a-1382-098a-c7… STARBRITE   367707710    USA         fishing    
#>  3 64907178b-b02a-f401-afa1-b3… SUSAN L     366211560    USA         fishing    
#>  4 35eb371c0-088a-1382-098a-c7… STARBRITE   367707710    USA         fishing    
#>  5 35eb371c0-088a-1382-098a-c7… STARBRITE   367707710    USA         fishing    
#>  6 454a28f85-56e4-93cb-efa6-ff… BERNADETTE  366233570    USA         fishing    
#>  7 64907178b-b02a-f401-afa1-b3… SUSAN L     366211560    USA         fishing    
#>  8 64907178b-b02a-f401-afa1-b3… SUSAN L     366211560    USA         fishing    
#>  9 64907178b-b02a-f401-afa1-b3… SUSAN L     366211560    USA         fishing    
#> 10 64907178b-b02a-f401-afa1-b3… SUSAN L     366211560    USA         fishing    
#> # ℹ 53 more rows
#> # ℹ 2 more variables: vessel_publicAuthorizations <list>, vessel_nextPort <lgl>
```
…
gfw_ais_fishing_hours(spatial_resolution = "LOW",
               temporal_resolution = "YEARLY",
               group_by = "FLAG",
               start_date = "2021-01-01",
               end_date = "2021-02-01",
               region_source = "USER_SHAPEFILE",
               region = test_shape)
#> # A tibble: 2,686 × 6
#>      Lat   Lon `Time Range` flag  `Vessel IDs` `Apparent Fishing Hours`
#>    <dbl> <dbl>        <dbl> <chr>        <dbl>                    <dbl>
#>  1   1.4  65.6         2021 FRA              1                     1.53
#>  2   1.5  68.2         2021 TWN              1                     1.04
#>  3   2.5  68.4         2021 LKA              1                     8.69
#>  4   2    65.3         2021 LKA              1                     0.73
#>  5   0.1  65.9         2021 LKA              1                     1.08
#>  6  14.7  64.4         2021 CHN              1                    14.0 
#>  7   2.8  66.3         2021 LKA              1                     1.22
#>  8  17    64.1         2021 CHN              1                     6.52
#>  9  15.1  60.4         2021 CHN              2                    15.6 
#> 10  15.2  61.4         2021 CHN              3                    13.3 
#> # ℹ 2,676 more rows
```
…
``` r
# use EEZ function to get EEZ code of Cote d'Ivoire
code_eez <- gfw_region_id(region = "CIV", region_source = "EEZ")

gfw_ais_fishing_hours(spatial_resolution = "LOW",
                      temporal_resolution = "YEARLY",
                      group_by = "FLAG",
                      start_date = "2021-01-01",
                      end_date = "2021-10-01",
                      region = code_eez$id,
                      region_source = "EEZ")
#> # A tibble: 595 × 6
#>      Lat   Lon `Time Range` flag  `Vessel IDs` `Apparent Fishing Hours`
#>    <dbl> <dbl>        <dbl> <chr>        <dbl>                    <dbl>
#>  1   1.7  -5.6         2021 BLZ              1                     0.39
#>  2   4    -3.6         2021 BES              1                     2.99
#>  3   3.1  -4           2021 FRA              1                     5.1 
#>  4   4.1  -5.7         2021 BLZ              1                     0.55
#>  5   5.2  -4.1         2021 CHN              2                    10.8 
#>  6   2.5  -5.4         2021 FRA              1                     7.45
#>  7   4.4  -3.7         2021 BES              2                     6.12
#>  8   5.3  -4           2021 SLV              3                    19   
#>  9   4    -4.2         2021 ESP              1                     3.1 
#> 10   4.1  -4           2021 GHA              1                     2.09
#> # ℹ 585 more rows
```
…
From the results above, let’s say we’re interested in the French
Exclusive Economic Zone, `5677`

``` r
gfw_ais_fishing_hours(spatial_resolution = "LOW",
                      temporal_resolution = "YEARLY",
                      group_by = "FLAG",
                      start_date = "2021-01-01",
                      end_date = "2021-10-01",
                      region = 5677,
                      region_source = "EEZ")
#> # A tibble: 5,618 × 6
#>      Lat   Lon `Time Range` flag  `Vessel IDs` `Apparent Fishing Hours`
#>    <dbl> <dbl>        <dbl> <chr>        <dbl>                    <dbl>
#>  1  49.8  -0.6         2021 NLD              7                    16.5 
#>  2  45.2  -2           2021 BEL              4                    59.3 
#>  3  42.6   3.4         2021 FRA              6                    37.8 
#>  4  45.1  -3.4         2021 ESP             20                    92   
#>  5  51.2   2.1         2021 BEL              3                    22.0 
#>  6  48.7  -4.2         2021 FRA              1                     1.01
#>  7  49.9  -1.7         2021 BEL              1                     1.71
#>  8  46.2  -3.9         2021 FRA              7                    45.4 
#>  9  44.8  -1.8         2021 ESP              9                    51.0 
#> 10  47.1  -2.6         2021 FRA             14                   174.  
#> # ℹ 5,608 more rows
```
…
                          region_source = "MPA")
code_mpa
#> # A tibble: 2 × 2
#>   id        label                                                               
#>   <chr>     <chr>                                                               
#> 1 309888    Phoenix Islands Protected Area - Protected Area                     
#> 2 555512002 Phoenix Islands Protected Area - World Heritage Site (natural or mi…
gfw_ais_fishing_hours(spatial_resolution = "LOW",
                      temporal_resolution = "YEARLY",
                      group_by = "FLAG",
                      start_date = "2015-01-01",
                      end_date = "2015-06-01",
                      region = code_mpa$id[1],
                      region_source = "MPA")
#> # A tibble: 38 × 6
#>      Lat   Lon `Time Range` flag  `Vessel IDs` `Apparent Fishing Hours`
#>    <dbl> <dbl>        <dbl> <chr>        <dbl>                    <dbl>
#>  1  -3.6 -176.         2015 KOR              1                     1.98
#>  2  -1   -170.         2015 KOR              1                     2.39
#>  3  -2.9 -176.         2015 FSM              1                     2.77
#>  4  -2.6 -176.         2015 KOR              1                    13.9 
#>  5  -3   -176.         2015 FSM              1                     2.16
#>  6  -3.6 -176.         2015 KIR              1                     6.07
#>  7  -4.1 -176.         2015 KOR              1                     2.67
#>  8  -3.5 -176.         2015 KOR              1                     3.11
#>  9  -2.8 -176.         2015 KOR              1                    10.4 
#> 10  -4.2 -176.         2015 KOR              1                     0.05
#> # ℹ 28 more rows
```
…
