Making maps with gfwr
…
The gfwr function get_raster() provides
aggregated gridded (e.g. raster) data for AIS-based apparent fishing
effort (SAR). It was designed to provide data for a specific region,
offering users the ability to select from multiple built-in region types
by specifying a specific Exclusive Economic Zone (EEZ), Marine Protected
Area (MPA), or Regional Fisheries Management Organization (RFMO).

The list of available regions for each type, and their
label and id, can be accessed with the
get_regions() function.

eez_regions <- get_regions(region_source = 'EEZ', key = gfw_key)

eez_regions
#> # A tibble: 282 × 3
#>       id label                                                         iso3 
#>    <int> <chr>                                                         <chr>
#>  1  5675 Estonia                                                       EST  
#>  2 48944 Mayotte                                                       FRA  
#>  3 50170 Overlapping claim Qatar / Saudi Arabia / United Arab Emirates QAT  
#>  4  8475 Cameroon                                                      CMR  
#>  5  5676 Finland                                                       FIN  
#>  6  8340 Bassas da India                                               FRA  
#>  7  8435 Faeroe                                                        DNK  
#>  8  8488 Gilbert Islands                                               KIR  
#>  9 48971 Overlapping claim: Venezuela / Colombia / Dominican Republic  COL  
#> 10  8474 Nigeria                                                       NGA  
#> # ℹ 272 more rows
…
  group_by = "FLAG",
  date_range = paste0(start_date,',',end_date),
  region = ita_eez_code$id,
  region_source = "EEZ"
  )
#> Rows: 69142 Columns: 6
#> ── Column specification ────────────────────────────────────────────────────────
#> Delimiter: ","
#> chr (1): flag
#> dbl (5): Lat, Lon, Time Range, Vessel IDs, Apparent Fishing Hours
#> 
#> ℹ Use `spec()` to retrieve the full column specification for this data.
#> ℹ Specify the column types or set `show_col_types = FALSE` to quiet this message.

#> # A tibble: 69,142 × 6
#>      Lat   Lon `Time Range` flag  `Vessel IDs` `Apparent Fishing Hours`
#>    <dbl> <dbl>        <dbl> <chr>        <dbl>                    <dbl>
#>  1  44.2  9.19         2021 ITA             12                     54.0
#>  2  37.5 12.9          2021 ITA             13                     19.5
#>  3  37.5 13.0          2021 ITA             12                     32.6
#>  4  37.4 13.2          2021 ITA             13                     22.6
#>  5  37.4 13.1          2021 ITA             13                     15.9
#>  6  37.4 13.1          2021 ITA             19                     24.4
#>  7  37.4 13.2          2021 ITA             16                     15.7
#>  8  37.4 13.2          2021 ITA             16                     21.3
#>  9  37.4 13.2          2021 ITA             14                     30.2
#> 10  37.3 13.4          2021 ITA             13                     10.5
#> # ℹ 69,132 more rows
…
  group_by = "GEARTYPE",
  date_range = paste0(start_date,',',end_date),
  region = "IOTC",
  region_source = "RFMO"
  )
#> Rows: 106229 Columns: 6
#> ── Column specification ────────────────────────────────────────────────────────
#> Delimiter: ","
#> chr (1): geartype
#> dbl (5): Lat, Lon, Time Range, Vessel IDs, Apparent Fishing Hours
#> 
#> ℹ Use `spec()` to retrieve the full column specification for this data.
#> ℹ Specify the column types or set `show_col_types = FALSE` to quiet this message.

#> # A tibble: 106,229 × 6
#>      Lat   Lon `Time Range` geartype      `Vessel IDs` `Apparent Fishing Hours`
#>    <dbl> <dbl>        <dbl> <chr>                <dbl>                    <dbl>
#>  1  26.5  50.2         2021 trawlers                10                     82.2
#>  2  26.2  50.6         2021 set_longlines           13                    128. 
#>  3  26.2  50.6         2021 fishing                 13                     41.4
#>  4  26.9  50.8         2021 fishing                  9                     92.0
#>  5  26.9  51           2021 fishing                 14                    498. 
#>  6  26.9  50.9         2021 set_longlines           10                    123. 
#>  7  26.9  51           2021 set_longlines           17                    386. 
#>  8  26.8  50.8         2021 fishing                 11                    144. 
#>  9  26.8  50.9         2021 fishing                 12                    165. 
#> 10  26.9  50.9         2021 fishing                 10                    117. 
#> # ℹ 106,219 more rows
…
