Access data from Global Fishing Watch APIs • gfwr
…
Check the function documentation for examples with the other function arguments and our dedicated vignette for more information about vessel identity markers and the outputs retrieved.

Events API

The gfw_event() function allows you to get data on specific vessel activities from the Events API. Event types include apparent fishing events, potential transshipment events (two-vessel encounters and loitering by refrigerated carrier vessels), port visits, and AIS-disabling events (“gaps”). Find more information about events in our caveat documentation.

Events in a given time range

You can get events in a given date range. By not specifying vessels, the response will return results for all vessels.

gfw_event(event_type = "ENCOUNTER",
          start_date = "2020-01-01",
          end_date = "2020-01-02")
#> [1] "Downloading 282 events from GFW"
#> # A tibble: 282 × 17
#>    start               end                 eventId        eventType   lat    lon
#>    <dttm>              <dttm>              <chr>          <chr>     <dbl>  <dbl>
#>  1 2019-12-26 14:10:00 2020-01-03 05:30:00 42a406089abfd… encounter -1.79 -113. 
#>  2 2020-01-01 08:10:00 2020-01-01 10:50:00 9c8905e1c0077… encounter -2.44   50.7
#>  3 2020-01-01 00:00:00 2020-01-01 23:20:00 daf359c6663c8… encounter 44.5   136. 
#>  4 2020-01-01 14:10:00 2020-01-01 23:30:00 5acdf7e969b84… encounter 22.8   117. 
#>  5 2020-01-01 08:30:00 2020-01-02 23:50:00 18937559dfefb… encounter 38.8   121. 
#>  6 2020-01-01 08:10:00 2020-01-01 19:30:00 a8394432b0c78… encounter 35.6   120. 
#>  7 2020-01-01 19:00:00 2020-01-01 21:30:00 e8d849c5554c7… encounter 38.5   121. 
#>  8 2020-01-01 18:20:00 2020-01-01 21:10:00 9219958bd1dec… encounter 38.5   121. 
#>  9 2020-01-01 15:00:00 2020-01-01 18:20:00 fa8f5ac8ae49d… encounter  9.49  -99.1
#> 10 2020-01-01 01:30:00 2020-01-01 08:00:00 70e89e159d487… encounter 35.7   126. 
#> # ℹ 272 more rows
#> # ℹ 11 more variables: regions <list>, boundingBox <list>, distances <list>,
#> #   vesselId <chr>, vessel_name <chr>, vessel_ssvid <chr>, vessel_flag <chr>,
#> #   vessel_type <chr>, vessel_publicAuthorizations <list>,
#> #   vessel_nextPort <list>, event_info <list>
…
 # fishing events in user shapefile
test_polygon <- sf::st_bbox(c(xmin = -70,
                              xmax = -40,
                              ymin = -10,
                              ymax = 5),
  crs = 4326) |>
  sf::st_as_sfc() |>
  sf::st_as_sf()
gfw_event(event_type = "FISHING",
               start_date = "2020-10-01",
               end_date = "2020-10-31",
               region = test_polygon,
               region_source = "USER_SHAPEFILE")
#> [1] "Downloading 59 events from GFW"
#> # A tibble: 59 × 17
#>    start               end                 eventId        eventType    lat   lon
#>    <dttm>              <dttm>              <chr>          <chr>      <dbl> <dbl>
#>  1 2020-10-20 03:23:35 2020-10-20 16:14:26 97790a3a15dc5… fishing    4.89  -51.8
#>  2 2020-10-21 23:23:14 2020-10-22 18:05:07 b4600d56f2387… fishing    4.69  -51.5
#>  3 2020-10-21 05:22:43 2020-10-21 06:12:19 7fe57ee82256c… fishing    0.258 -47.9
#>  4 2020-10-11 10:42:33 2020-10-11 14:06:06 791924103dda5… fishing    0.183 -47.9
#>  5 2020-10-04 09:14:18 2020-10-04 14:41:28 157f544a9b570… fishing   -0.106 -47.7
#>  6 2020-10-20 14:14:15 2020-10-20 19:47:10 aae6ff4415937… fishing    0.252 -47.9
#>  7 2020-10-22 11:17:28 2020-10-22 18:02:00 5c3819505497e… fishing    4.71  -51.5
#>  8 2020-10-01 23:29:31 2020-10-03 03:11:17 4d538f3b37e2a… fishing    4.74  -51.5
#>  9 2020-10-05 08:50:27 2020-10-06 17:35:21 c75671db2488b… fishing    4.71  -51.5
#> 10 2020-10-03 05:50:14 2020-10-05 03:35:27 b68b49e7e3655… fishing    4.73  -51.5
#> # ℹ 49 more rows
#> # ℹ 11 more variables: regions <list>, boundingBox <list>, distances <list>,
#> #   vesselId <chr>, vessel_name <chr>, vessel_ssvid <chr>, vessel_flag <chr>,
#> #   vessel_type <chr>, vessel_publicAuthorizations <list>,
#> #   vessel_nextPort <lgl>, event_info <list>
…
The results show this vessel’s story is grouped in two vesselIds.

To get a list of port visits for that vessel, you can use a single vesselId of your interest:

id <- vessel_info$selfReportedInfo$vesselId
id
#> [1] "6632c9eb8-8009-abdb-baf9-b67d65f20510"
#> [2] "3c99c326d-dd2e-175d-626f-a3c488a4342b"

gfw_event(event_type = "PORT_VISIT",
          vessels = id[1],
          confidences = 4
          )
#> [1] "Downloading 25 events from GFW"
#> # A tibble: 25 × 16
#>    start               end                 eventId        eventType   lat    lon
#>    <dttm>              <dttm>              <chr>          <chr>     <dbl>  <dbl>
#>  1 2020-01-27 08:04:38 2020-02-23 10:18:02 abed2e0c06e4e… port_vis… 16.9  -25.0 
#>  2 2020-02-23 12:44:03 2020-02-24 10:35:02 672bc20417b3c… port_vis… 16.9  -25.0 
#>  3 2019-12-06 11:02:09 2019-12-11 10:20:04 bcd967c59306c… port_vis…  5.20  -4.04
#>  4 2019-11-15 14:15:11 2019-11-19 07:49:20 bbeed3f884a6f… port_vis…  5.20  -4.02
#>  5 2020-03-05 13:28:59 2020-03-10 02:26:24 0d845cb306614… port_vis…  5.20  -4.02
#>  6 2020-06-25 09:13:36 2020-06-25 20:31:10 29863e18bfa98… port_vis… 16.9  -25.0 
#>  7 2020-06-20 12:33:45 2020-06-20 19:43:10 a8f5401a3bbec… port_vis… 14.6  -17.4 
#>  8 2020-08-08 06:40:40 2020-08-10 08:13:39 acd48bf28e6b3… port_vis… 14.6  -17.4 
#>  9 2020-01-11 11:18:49 2020-01-15 11:54:49 889beb4fc4bfb… port_vis…  5.23  -4.02
#> 10 2020-12-14 09:46:52 2020-12-22 16:54:09 9205a53a7b91d… port_vis…  5.20  -4.04
#> # ℹ 15 more rows
#> # ℹ 10 more variables: regions <list>, boundingBox <list>, distances <list>,
#> #   vesselId <chr>, vessel_name <chr>, vessel_ssvid <chr>, vessel_flag <chr>,
#> #   vessel_type <chr>, vessel_nextPort <lgl>, event_info <list>

But to get the whole event history, it’s better to use the whole vector of vesselId for that vessel. Notice how the following request provides more results than the previous one:

gfw_event(event_type = "PORT_VISIT",
          vessels = id, #using the whole vector of vesselIds
          confidences = 4
          )
#> [1] "Downloading 74 events from GFW"
#> # A tibble: 74 × 16
#>    start               end                 eventId        eventType   lat    lon
#>    <dttm>              <dttm>              <chr>          <chr>     <dbl>  <dbl>
#>  1 2019-05-09 10:03:41 2019-05-11 16:22:04 db32557dc74e7… port_vis…  5.26  -4.01
#>  2 2019-06-07 09:01:12 2019-06-18 23:23:02 567f5179cc1d5… port_vis…  5.23  -4.02
#>  3 2021-10-17 09:52:51 2021-10-17 16:06:40 d133e151d9edd… port_vis… 14.6  -17.4 
#>  4 2016-10-04 17:15:47 2016-10-09 21:02:28 2d376318fda23… port_vis…  5.23  -4.02
#>  5 2019-03-23 02:17:24 2019-03-28 19:47:18 92281e785f29e… port_vis…  5.23  -3.97
#>  6 2020-01-27 08:04:38 2020-02-23 10:18:02 abed2e0c06e4e… port_vis… 16.9  -25.0 
#>  7 2018-06-24 06:19:15 2018-06-29 10:14:59 4a2248c5a04ac… port_vis…  5.21  -4.02
#>  8 2020-02-23 12:44:03 2020-02-24 10:35:02 672bc20417b3c… port_vis… 16.9  -25.0 
#>  9 2015-11-04 05:22:13 2015-11-07 10:46:28 b7250410f8c7a… port_vis…  5.20  -4.04
#> 10 2019-07-09 09:31:01 2019-07-13 13:19:15 557fe44f868f3… port_vis…  5.23  -3.97
#> # ℹ 64 more rows
#> # ℹ 10 more variables: regions <list>, boundingBox <list>, distances <list>,
#> #   vesselId <chr>, vessel_name <chr>, vessel_ssvid <chr>, vessel_flag <chr>,
#> #   vessel_type <chr>, vessel_nextPort <lgl>, event_info <list>
…
As another example, let’s combine the Vessels and Events APIs to get fishing events for a list of USA-flagged trawlers:

# Download the list of USA trawlers
usa_trawlers <- gfw_vessel_info(
  where = "flag='USA' AND geartypes='TRAWLERS'",
  search_type = "search",
  quiet = TRUE 
  )
# Set quiet = TRUE if you want the output to return silently

This list returns 6569 vesselIds belonging to 4203 vessels.

usa_trawlers$selfReportedInfo
#> # A tibble: 6,760 × 14
#>    index vesselId  ssvid shipname nShipname flag  callsign imo   messagesCounter
#>    <dbl> <chr>     <chr> <chr>    <chr>     <chr> <chr>    <chr>           <int>
#>  1     1 d32af732… 3680… SUPERMA… SUPERMAN… USA   WDJ8890  <NA>           267397
#>  2     1 5446e7cd… 3680… SUPERMA… SUPERMAN… USA   <NA>     <NA>             6184
#>  3     2 9f555214… 3680… PELICAN  PELICAN   USA   WDJ8253  <NA>           445303
#>  4     2 15cea26f… 3680… PELICAN  PELICAN   USA   <NA>     <NA>              407
#>  5     3 47b94476… 3668… ORION    ORION     USA   <NA>     <NA>            23007
#>  6     4 0dddd2a8… 3673… SHAMROCK SHAMROCK  USA   WDD8722  <NA>             2720
#>  7     4 695b254f… 3673… SHAMROCK SHAMROCK  USA   <NA>     <NA>              477
#>  8     4 ac994bda… 3673… <NA>     <NA>      USA   WDD8722  <NA>             3179
#>  9     5 bc29946f… 3667… ALEX     ALEX      USA   WDA2216  <NA>           896473
#> 10     5 0e4052b1… 3667… <NA>     <NA>      USA   WDA2216  <NA>             8403
#> # ℹ 6,750 more rows
#> # ℹ 5 more variables: positionsCounter <int>, sourceCode <list>,
#> #   matchFields <chr>, transmissionDateFrom <chr>, transmissionDateTo <chr>

To fetch events for this list of vessels, we will use the vesselId column and send it to the vessels parameter in gfw_event() function.

For clarity, we should try to send groups of vesselIds that belong to the same vessels. For this, we can check the index column in the $selfReportedInfo dataset.

Note: gfw_event() can receive several vesselIds at a time but will fail when the character length of the whole request is too long (~100,000 characters). This means it will fail with error HTTP 422: Unprocessable entity when too many vesselIds are requested, this value can be around 2,800 vesselIds depending on the other parameters of the search.

For this example, we will send the vesselIds corresponding to the first twenty vessels in the response:

each_USA_trawler <- usa_trawlers$selfReportedInfo[, c("index", "vesselId")] 
# how many vessels correspond to the first twenty vessels. 
(twenty_usa_trawlers <- each_USA_trawler %>% filter(index <= 20))
#> # A tibble: 54 × 2
#>    index vesselId                             
#>    <dbl> <chr>                                
#>  1     1 d32af7320-0748-9a63-abd7-48ad721e63b8
#>  2     1 5446e7cd1-1f75-4672-d859-01211df72fba
#>  3     2 9f5552145-50ed-92f4-4514-5177b1a6511d
#>  4     2 15cea26f5-57ad-acac-4cbf-b45cefb7ab04
#>  5     3 47b944765-5819-b2ab-8c2e-cfc82bd2e82c
#>  6     4 0dddd2a83-3626-24f1-0fe6-3c4d45bbb409
#>  7     4 695b254f7-7e6c-ff50-dc63-55139d9e0101
#>  8     4 ac994bdab-b59c-9fcc-659e-40179e5dddfb
#>  9     5 bc29946f2-2b0b-9613-054a-cd59327226d9
#> 10     5 0e4052b12-2e16-969f-d3e3-2a266be74255
#> # ℹ 44 more rows

There are 54 vesselIds corresponding to those 20 vessels.

Let’s pass the vector of vesselIds to Events API. Now get the list of fishing events for these trawlers in January, 2020:

fishing_events <- gfw_event(event_type = "FISHING",
                            vessels = twenty_usa_trawlers$vesselId,
                            start_date = "2020-01-01",
                            end_date = "2020-02-01")
#> [1] "Downloading 63 events from GFW"
fishing_events
#> # A tibble: 63 × 17
#>    start               end                 eventId        eventType   lat    lon
#>    <dttm>              <dttm>              <chr>          <chr>     <dbl>  <dbl>
#>  1 2020-01-05 03:57:26 2020-01-05 05:24:51 0a79fe4183554… fishing    44.4 -124. 
#>  2 2020-01-05 00:00:52 2020-01-05 02:26:06 80bc7a7eed72d… fishing    24.5  -81.8
#>  3 2020-01-18 06:54:55 2020-01-18 07:29:56 5ff9724477b70… fishing    41.4  -69.3
#>  4 2020-01-15 21:35:14 2020-01-16 11:01:12 2c309e235a0d1… fishing    41.4  -68.7
#>  5 2020-01-18 08:32:40 2020-01-19 20:25:48 cf7977e6a3a4c… fishing    41.4  -69.3
#>  6 2020-01-29 10:01:51 2020-01-29 12:21:51 25faed9edb8e8… fishing    42.8 -125. 
#>  7 2019-12-31 01:38:26 2020-01-02 05:06:56 b630325a08b11… fishing    41.4  -68.7
#>  8 2020-01-25 09:38:35 2020-01-25 10:34:01 6b4c28449e7fe… fishing    40.1  -72.7
#>  9 2020-01-25 12:32:16 2020-01-25 13:32:16 0b0e500f2c7e3… fishing    39.9  -73.0
#> 10 2020-01-13 15:19:52 2020-01-13 17:47:54 c5409b543781f… fishing    41.5  -69.3
#> # ℹ 53 more rows
#> # ℹ 11 more variables: regions <list>, boundingBox <list>, distances <list>,
#> #   vesselId <chr>, vessel_name <chr>, vessel_ssvid <chr>, vessel_flag <chr>,
#> #   vessel_type <chr>, vessel_publicAuthorizations <list>,
#> #   vessel_nextPort <lgl>, event_info <list>

The columns starting by vessel hold the vessel-related information for each event: vesselId, vessel_name, ssvid (MMSI), flag, vessel type and public authorizations.

fishing_events %>% 
  dplyr::select(starts_with("vessel"))
#> # A tibble: 63 × 7
#>    vesselId                     vessel_name vessel_ssvid vessel_flag vessel_type
#>    <chr>                        <chr>       <chr>        <chr>       <chr>      
#>  1 0203066e4-4f99-c97a-7b94-0e… PROSPECTOR  367428110    USA         fishing    
#>  2 d32af7320-0748-9a63-abd7-48… SUPERMAN`S… 368020840    USA         fishing    
#>  3 35eb371c0-088a-1382-098a-c7… STARBRITE   367707710    USA         fishing    
#>  4 35eb371c0-088a-1382-098a-c7… STARBRITE   367707710    USA         fishing    
#>  5 35eb371c0-088a-1382-098a-c7… STARBRITE   367707710    USA         fishing    
#>  6 454a28f85-56e4-93cb-efa6-ff… BERNADETTE  366233570    USA         fishing    
#>  7 35eb371c0-088a-1382-098a-c7… STARBRITE   367707710    USA         fishing    
#>  8 35eb371c0-088a-1382-098a-c7… STARBRITE   367707710    USA         fishing    
#>  9 35eb371c0-088a-1382-098a-c7… STARBRITE   367707710    USA         fishing    
#> 10 35eb371c0-088a-1382-098a-c7… STARBRITE   367707710    USA         fishing    
#> # ℹ 53 more rows
#> # ℹ 2 more variables: vessel_publicAuthorizations <list>, vessel_nextPort <lgl>
…
gfw_ais_fishing_hours(spatial_resolution = "LOW",
               temporal_resolution = "YEARLY",
               group_by = "FLAG",
               start_date = "2021-01-01",
               end_date = "2021-02-01",
               region_source = "USER_SHAPEFILE",
               region = test_shape)
#> # A tibble: 2,686 × 6
#>      Lat   Lon `Time Range` flag  `Vessel IDs` `Apparent Fishing Hours`
#>    <dbl> <dbl>        <dbl> <chr>        <dbl>                    <dbl>
#>  1  15.2  61.4         2021 CHN              3                    13.3 
#>  2  15.1  60.4         2021 CHN              2                    15.6 
#>  3  15.7  63.7         2021 CHN              2                    14.6 
#>  4  15.6  62.7         2021 CHN              1                    11.7 
#>  5   4.6  65.7         2021 TWN              1                     1.82
#>  6   5.8  67.2         2021 TWN              1                    10.2 
#>  7  15.4  60.6         2021 CHN              1                     7.81
#>  8  12.5  62.2         2021 CHN              1                     5.78
#>  9   6    68.8         2021 <NA>             1                     5.46
#> 10   1.4  65.6         2021 FRA              1                     1.53
#> # ℹ 2,676 more rows
…
EEZ

If you want raster data from a particular EEZ, you can use the gfw_region_id() function to get the EEZ id, and enter that code in the region argument of gfw_ais_fishing_hours() instead of the region shapefile (with region_source = "EEZ"):

# use EEZ function to get EEZ code of Cote d'Ivoire
code_eez <- gfw_region_id(region = "CIV", region_source = "EEZ")

gfw_ais_fishing_hours(spatial_resolution = "LOW",
                      temporal_resolution = "YEARLY",
                      group_by = "FLAG",
                      start_date = "2021-01-01",
                      end_date = "2021-10-01",
                      region = code_eez$id,
                      region_source = "EEZ")
#> # A tibble: 595 × 6
#>      Lat   Lon `Time Range` flag  `Vessel IDs` `Apparent Fishing Hours`
#>    <dbl> <dbl>        <dbl> <chr>        <dbl>                    <dbl>
#>  1   4.4  -3.7         2021 BLZ              1                     0.72
#>  2   4.7  -5.8         2021 CHN              1                     3.62
#>  3   4.5  -3.8         2021 PAN              1                     2.24
#>  4   1.7  -5.6         2021 BLZ              1                     0.39
#>  5   4    -3.6         2021 BES              1                     2.99
#>  6   3.1  -4           2021 FRA              1                     5.1 
#>  7   3.6  -3.9         2021 FRA              1                     0.03
#>  8   1.2  -6.8         2021 LBR              1                     0.43
#>  9   2.3  -6.4         2021 BLZ              1                     0.29
#> 10   4.9  -3.6         2021 ESP              1                     0.62
#> # ℹ 585 more rows
…
From the results above, let’s say we’re interested in the French Exclusive Economic Zone, 5677

gfw_ais_fishing_hours(spatial_resolution = "LOW",
                      temporal_resolution = "YEARLY",
                      group_by = "FLAG",
                      start_date = "2021-01-01",
                      end_date = "2021-10-01",
                      region = 5677,
                      region_source = "EEZ")
#> # A tibble: 5,618 × 6
#>      Lat   Lon `Time Range` flag  `Vessel IDs` `Apparent Fishing Hours`
#>    <dbl> <dbl>        <dbl> <chr>        <dbl>                    <dbl>
#>  1  47.3  -6.1         2021 FRA             12                   390.  
#>  2  49    -1.7         2021 FRA             18                   213.  
#>  3  45.9  -4.9         2021 FRA              2                     6.68
#>  4  47.4  -3.1         2021 FRA              7                    16.2 
#>  5  48.4  -6.3         2021 FRA              8                    16.2 
#>  6  46.7  -4.7         2021 ESP             11                    70.8 
#>  7  46.8  -5.6         2021 FRA              1                     1.07
#>  8  45.5  -5           2021 ESP             26                   133.  
#>  9  46.5  -4.6         2021 ESP              3                     4.67
#> 10  45.8  -4           2021 FRA              1                     6.56
#> # ℹ 5,608 more rows
…
                          region_source = "MPA")
code_mpa
#> # A tibble: 2 × 2
#>   id        label                                                               
#>   <chr>     <chr>                                                               
#> 1 309888    Phoenix Islands Protected Area - Protected Area                     
#> 2 555512002 Phoenix Islands Protected Area - World Heritage Site (natural or mi…
gfw_ais_fishing_hours(spatial_resolution = "LOW",
                      temporal_resolution = "YEARLY",
                      group_by = "FLAG",
                      start_date = "2015-01-01",
                      end_date = "2015-06-01",
                      region = code_mpa$id[1],
                      region_source = "MPA")
#> # A tibble: 38 × 6
#>      Lat   Lon `Time Range` flag  `Vessel IDs` `Apparent Fishing Hours`
#>    <dbl> <dbl>        <dbl> <chr>        <dbl>                    <dbl>
#>  1  -3.6 -176.         2015 KOR              1                     1.98
#>  2  -4.1 -176.         2015 KOR              1                     1.57
#>  3  -2.9 -176.         2015 FSM              1                     2.77
#>  4  -2.6 -176.         2015 KOR              1                    13.9 
#>  5  -3   -176.         2015 FSM              1                     2.16
#>  6  -3.6 -176.         2015 KIR              1                     6.07
#>  7  -3.5 -176.         2015 KOR              1                     3.11
#>  8  -1   -170.         2015 KOR              1                     2.39
#>  9  -4.1 -176.         2015 KOR              1                     2.67
#> 10  -2.8 -176.         2015 KOR              1                    10.4 
#> # ℹ 28 more rows
…
