Making maps with `gfwr` • gfwr
…
           group_by = "FLAG",
           start_date = "2021-01-01",
           end_date = "2021-10-01",
           region = code_eez$id,
           region_source = "EEZ")
#> Rows: 5580 Columns: 6
#> ── Column specification ────────────────────────────────────────────────────────
#> Delimiter: ","
#> chr (1): flag
#> dbl (5): Lat, Lon, Time Range, Vessel IDs, Apparent Fishing Hours
#> 
#> ℹ Use `spec()` to retrieve the full column specification for this data.
#> ℹ Specify the column types or set `show_col_types = FALSE` to quiet this message.

#> # A tibble: 5,580 × 6
#>      Lat   Lon `Time Range` flag  `Vessel IDs` `Apparent Fishing Hours`
#>    <dbl> <dbl>        <dbl> <chr>        <dbl>                    <dbl>
#>  1  44.1   8.3         2021 ITA              3                    670. 
#>  2  43.7   7.7         2021 ITA              7                    488. 
#>  3  44     8.3         2021 ITA              5                    394. 
#>  4  43.8   8.1         2021 ITA              6                    470. 
#>  5  43.9   8.1         2021 ITA              4                     32.1
#>  6  43.8   8.2         2021 ITA              5                    171. 
#>  7  43.8   7.8         2021 ITA              8                    293. 
#>  8  43.8   7.9         2021 ITA              8                    615. 
#>  9  43.7   7.9         2021 ITA              7                    127. 
#> 10  44.4   8.6         2021 ITA              7                     49.2
#> # ℹ 5,570 more rows

If we summarize the data by the flag variable, we can
see how much activity occurred in the Italian EEZ by vessels from
different flag states.

eez_fish_df %>% 
  group_by(flag) %>% 
  summarize(fishing_hours = sum(`Apparent Fishing Hours`, na.rm = T)) %>% 
  arrange(desc(fishing_hours))
#> # A tibble: 26 × 2
#>    flag  fishing_hours
#>    <chr>         <dbl>
#>  1 ITA        1377221.
#>  2 MLT          10762.
#>  3 TUN           5951.
#>  4 HRV           3460.
#>  5 DEU           1042.
#>  6 ALB           1026.
#>  7 DZA            839.
#>  8 TUR            645.
#>  9 CYP            580.
#> 10 ESP            317.
#> # ℹ 16 more rows
…
