Exploring the vessel presence layer in `gfwr` • gfwr
…
Note: The use of a region is mandatory, as the API
is not designed to handle global requests

The list of available regions for each type, and their
label and id, can be accessed with the
gfw_regions() function.

eez_regions <- gfw_regions(region_source = 'EEZ')
eez_regions
#> # A tibble: 285 × 5
#>    iso   label                          id GEONAME                      POL_TYPE
#>    <chr> <chr>                       <dbl> <chr>                        <chr>   
#>  1 ASM   American Samoa               8444 United States Exclusive Eco… 200NM   
#>  2 SHN   Ascension                    8379 British Exclusive Economic … 200NM   
#>  3 COK   Cook Islands                 8446 New Zealand Exclusive Econo… 200NM   
#>  4 FLK   Falkland / Malvinas Islands  8389 Overlapping claim Falkland … Overlap…
#>  5 PYF   French Polynesia             8440 French Exclusive Economic Z… 200NM   
#>  6 PCN   Pitcairn                     8439 British Exclusive Economic … 200NM   
#>  7 SHN   Saint Helena                 8380 British Exclusive Economic … 200NM   
#>  8 WSM   Samoa                        8445 Samoan Exclusive Economic Z… 200NM   
#>  9 TON   Tonga                        8448 Tongan Exclusive Economic Z… 200NM   
#> 10 SHN   Tristan da Cunha             8382 British Exclusive Economic … 200NM   
#> # ℹ 275 more rows
…
Spatial resolution can be LOW = 0.1 degree or HIGH = 0.01 degree,

vp_senegal <- gfw_ais_presence(spatial_resolution = "LOW",
                               temporal_resolution = "MONTHLY",
                               start_date = start_date,
                               end_date = end_date,
                               region_source = "EEZ",
                               region = 8371)
vp_senegal
#> # A tibble: 4,169 × 5
#>      Lat   Lon `Time Range` `Vessel IDs` `Vessel Presence Hours`
#>    <dbl> <dbl> <chr>               <dbl>                   <dbl>
#>  1  14.5 -18   2024-02                64                     111
#>  2  11.6 -18.1 2024-01                20                      21
#>  3  11.4 -19.3 2024-01                11                      11
#>  4  14.2 -20   2024-01                 3                       3
#>  5  13.8 -20   2024-03                 3                       3
#>  6  13   -17.5 2024-01                25                      60
#>  7  14.6 -18.5 2024-03                42                      51
#>  8  15.4 -18.5 2024-02                37                      42
#>  9  11.9 -17.7 2024-02                49                      55
#> 10  11.8 -18.9 2024-02                11                      11
#> # ℹ 4,159 more rows
…
The Time Range column will be expressed in the temporal
units of the temporal resolution selected. In this example,
MONTHLY will create a Time Range expressed in months:
YYYY-MM

Explore other temporal resolution and how the results vary.

vp_senegal <- gfw_ais_presence(spatial_resolution = "LOW",
                               temporal_resolution = "YEARLY",
                               start_date = start_date,
                               end_date = end_date,
                               region_source = "EEZ",
                               region = 8371)
vp_senegal
#> # A tibble: 1,443 × 5
#>      Lat   Lon `Time Range` `Vessel IDs` `Vessel Presence Hours`
#>    <dbl> <dbl>        <dbl>        <dbl>                   <dbl>
#>  1  13.9 -18           2024          159                     189
#>  2  11.4 -19.9         2024           15                      19
#>  3  12   -18.5         2024           60                      71
#>  4  15.8 -19.5         2024           12                      15
#>  5  13.1 -19           2024            3                       3
#>  6  12.4 -20           2024           13                      14
#>  7  11.6 -18.9         2024           37                      39
#>  8  12.4 -17.7         2024          186                     232
#>  9  12.3 -18.9         2024           25                      27
#> 10  12.2 -19.6         2024           12                      13
#> # ℹ 1,433 more rows
…
The outputs of gfw_ais_presence() can be grouped by
FLAG, GEARTYPE, FLAGANDGEARTYPE,
MMSI or VESSEL_ID. This will create extra
grouping columns, and the number of vessel presence hours will be
expressed accordingly.

vp_senegal_flag <- gfw_ais_presence(spatial_resolution = "LOW",
                                    temporal_resolution = "MONTHLY",
                                    group_by = "FLAG",
                                    start_date = start_date,
                                    end_date = end_date,
                                    region_source = "EEZ",
                                    region = 8371)
vp_senegal_flag |> count(flag) |> arrange((desc(n)))
#> # A tibble: 84 × 2
#>    flag      n
#>    <chr> <int>
#>  1 LBR    2923
#>  2 MHL    2914
#>  3 PAN    2659
#>  4 MLT    2091
#>  5 SGP    1911
#>  6 BHS    1706
#>  7 HKG    1622
#>  8 NOR    1287
#>  9 PRT    1279
#> 10 ATG    1270
#> # ℹ 74 more rows
…
Grouping by MMSI will group the results at the MMSI scale, which can
correspond to individual vessels, but this is not always the case.

vp_senegal_MMSI <- gfw_ais_presence(spatial_resolution = "LOW",
                                    temporal_resolution = "MONTHLY",
                                    group_by = "MMSI",
                                    start_date = start_date,
                                    end_date = end_date,
                                    region_source = "EEZ",
                                    region = 8371)
vp_senegal_MMSI
#> # A tibble: 79,938 × 7
#>      Lat   Lon `Time Range`      mmsi `Entry Timestamp`   `Exit Timestamp`   
#>    <dbl> <dbl> <chr>            <dbl> <dttm>              <dttm>             
#>  1  12.3 -17.3 2024-03      663195000 2024-01-20 19:00:00 2024-03-07 02:00:00
#>  2  13.6 -17.7 2024-02      538007653 2024-02-09 13:00:00 2024-03-09 03:00:00
#>  3  12.2 -17.1 2024-02      229291000 2024-01-06 21:00:00 2024-02-24 17:00:00
#>  4  14.5 -18.6 2024-01      228032600 2024-01-16 23:00:00 2024-01-17 16:00:00
#>  5  14.2 -17.8 2024-03      636023564 2024-03-17 03:00:00 2024-03-17 15:00:00
#>  6  15.3 -17.2 2024-02      663179000 2024-01-01 00:00:00 2024-03-31 23:00:00
#>  7  14.7 -17.4 2024-03      787777888 2024-03-30 10:00:00 2024-03-31 23:00:00
#>  8  12.7 -17.9 2024-01      258491000 2024-01-25 13:00:00 2024-01-26 09:00:00
#>  9  13.7 -17   2024-03      255915614 2024-01-28 09:00:00 2024-03-07 08:00:00
#> 10  15.9 -19   2024-02      563106700 2024-01-31 03:00:00 2024-02-01 02:00:00
#> # ℹ 79,928 more rows
#> # ℹ 1 more variable: `Vessel Presence Hours` <dbl>
…
# Palette for fishing activity
map_effort_light <- c("#ffffff", "#eeff00", "#3b9088","#0c276c")

And let’s map the original vessel presence dataset for January-March
2024:

vp_senegal
#> # A tibble: 1,443 × 5
#>      Lat   Lon `Time Range` `Vessel IDs` `Vessel Presence Hours`
#>    <dbl> <dbl>        <dbl>        <dbl>                   <dbl>
#>  1  13.9 -18           2024          159                     189
#>  2  11.4 -19.9         2024           15                      19
#>  3  12   -18.5         2024           60                      71
#>  4  15.8 -19.5         2024           12                      15
#>  5  13.1 -19           2024            3                       3
#>  6  12.4 -20           2024           13                      14
#>  7  11.6 -18.9         2024           37                      39
#>  8  12.4 -17.7         2024          186                     232
#>  9  12.3 -18.9         2024           25                      27
#> 10  12.2 -19.6         2024           12                      13
#> # ℹ 1,433 more rows
…
