`gfwr`: Access data from Global Fishing Watch APIs • gfwr
…
Events in a given time range

You can get events in a given date range. By not specifying
vessels, the response will return results for all
vessels.

get_event(event_type = 'ENCOUNTER',
          start_date = "2020-01-01",
          end_date = "2020-01-02",
          key = key
          )
#> [1] "Downloading 286 events from GFW"
#> # A tibble: 286 × 16
#>    start               end                 eventId       eventType    lat    lon
#>    <dttm>              <dttm>              <chr>         <chr>      <dbl>  <dbl>
#>  1 2020-01-01 00:40:00 2020-01-01 09:50:00 99d023bde785… encounter -17.7   -79.2
#>  2 2020-01-01 06:40:00 2020-01-01 21:20:00 8506ab1afebe… encounter -61.5    34.8
#>  3 2020-01-01 19:30:00 2020-01-01 23:50:00 2879e4d9ffee… encounter  30.6   123. 
#>  4 2020-01-01 16:10:00 2020-01-01 18:30:00 bfffbb6b67ec… encounter -19.5  -106. 
#>  5 2020-01-01 08:10:00 2020-01-01 10:50:00 9c8905e1c007… encounter  -2.44   50.7
#>  6 2020-01-01 06:00:00 2020-01-01 08:30:00 8822076ecce8… encounter  34.7   129. 
#>  7 2020-01-01 00:50:00 2020-01-01 03:10:00 b9f97eda6297… encounter  30.1   122. 
#>  8 2020-01-01 18:00:00 2020-01-01 21:20:00 e5fc17eae361… encounter  38.5   121. 
#>  9 2020-01-01 19:00:00 2020-01-01 21:30:00 e8d849c5554c… encounter  38.5   121. 
#> 10 2020-01-01 10:50:00 2020-01-01 14:50:00 62c229a0f918… encounter -18.2   -79.1
#> # ℹ 276 more rows
#> # ℹ 10 more variables: regions <list>, boundingBox <list>, distances <list>,
#> #   vesselId <chr>, vessel_name <chr>, vessel_ssvid <chr>, vessel_flag <chr>,
#> #   vessel_type <chr>, vessel_publicAuthorizations <list>, event_info <list>
…
 # fishing events in user shapefile
test_polygon <- sf::st_bbox(c(xmin = -70, xmax = -40, ymin = -10, ymax = 5),
  crs = 4326) |>
  sf::st_as_sfc() |>
  sf::st_as_sf()
get_event(event_type = 'FISHING',
               start_date = "2020-10-01",
               end_date = "2020-10-31",
               region = test_polygon,
               region_source = 'USER_SHAPEFILE',
               key = gfw_auth())
#> [1] "Downloading 59 events from GFW"
#> # A tibble: 59 × 16
#>    start               end                 eventId       eventType     lat   lon
#>    <dttm>              <dttm>              <chr>         <chr>       <dbl> <dbl>
#>  1 2020-10-20 03:23:35 2020-10-20 16:14:26 97790a3a15dc… fishing    4.89   -51.8
#>  2 2020-10-19 11:28:05 2020-10-19 15:56:47 52b41baac7ea… fishing    0.376  -47.8
#>  3 2020-10-11 20:13:50 2020-10-12 02:24:29 2dd889e7f9ec… fishing    0.140  -47.9
#>  4 2020-10-25 13:25:27 2020-10-25 19:48:17 75143d8026e8… fishing    0.193  -47.9
#>  5 2020-10-22 01:59:54 2020-10-22 03:58:15 2ed40086d273… fishing   -0.0635 -47.8
#>  6 2020-10-11 10:42:33 2020-10-11 14:06:06 791924103dda… fishing    0.183  -47.9
#>  7 2020-10-03 05:50:14 2020-10-05 03:35:27 b68b49e7e365… fishing    4.73   -51.5
#>  8 2020-10-01 12:54:31 2020-10-01 21:26:31 083f87bff859… fishing    4.75   -51.6
#>  9 2020-10-05 08:50:27 2020-10-06 17:35:21 c75671db2488… fishing    4.71   -51.5
#> 10 2020-10-01 23:29:31 2020-10-03 03:11:17 4d538f3b37e2… fishing    4.74   -51.5
#> # ℹ 49 more rows
#> # ℹ 10 more variables: regions <list>, boundingBox <list>, distances <list>,
#> #   vesselId <chr>, vessel_name <chr>, vessel_ssvid <chr>, vessel_flag <chr>,
#> #   vessel_type <chr>, vessel_publicAuthorizations <list>, event_info <list>
…
To get a list of port visits for that vessel, you can use a single
vesselId of your interest:

id <- vessel_info$selfReportedInfo$vesselId
id
#> [1] "6632c9eb8-8009-abdb-baf9-b67d65f20510"
#> [2] "3c99c326d-dd2e-175d-626f-a3c488a4342b"

get_event(event_type = 'PORT_VISIT',
          vessels = id[1],
          confidences = 4,
          key = key
          )
#> [1] "Downloading 25 events from GFW"
#> # A tibble: 25 × 15
#>    start               end                 eventId        eventType   lat    lon
#>    <dttm>              <dttm>              <chr>          <chr>     <dbl>  <dbl>
#>  1 2020-06-25 09:13:36 2020-06-25 20:31:10 29863e18bfa98… port_vis… 16.9  -25.0 
#>  2 2020-06-20 12:33:45 2020-06-20 19:43:10 a8f5401a3bbec… port_vis… 14.6  -17.4 
#>  3 2020-02-23 12:44:03 2020-02-24 10:35:02 672bc20417b3c… port_vis… 16.9  -25.0 
#>  4 2020-08-08 06:40:40 2020-08-10 08:13:39 acd48bf28e6b3… port_vis… 14.6  -17.4 
#>  5 2020-03-05 13:28:59 2020-03-10 02:26:24 0d845cb306614… port_vis…  5.20  -4.02
#>  6 2020-04-01 05:55:58 2020-04-05 15:03:18 953e1cf8246db… port_vis…  5.23  -4.02
#>  7 2020-04-19 06:16:46 2020-04-21 14:02:19 5ad5c93c5448d… port_vis… 28.1  -15.4 
#>  8 2020-07-06 06:45:06 2020-07-12 09:13:39 6845cffacfe25… port_vis…  5.20  -4.02
#>  9 2020-11-01 14:17:48 2020-11-06 12:25:53 f39043169c3c4… port_vis…  5.20  -4.02
#> 10 2021-05-19 22:46:40 2021-06-08 08:54:49 ed0ffc8600077… port_vis… 14.7  -17.4 
#> # ℹ 15 more rows
#> # ℹ 9 more variables: regions <list>, boundingBox <list>, distances <list>,
#> #   vesselId <chr>, vessel_name <chr>, vessel_ssvid <chr>, vessel_flag <chr>,
#> #   vessel_type <chr>, event_info <list>

But to get the whole event history, you can also use the whole vector
of vesselId for that vessel:

get_event(event_type = 'PORT_VISIT',
          vessels = id, #using the whole vector of vesselIds
          confidences = 4,
          key = key
          )
#> [1] "Downloading 74 events from GFW"
#> # A tibble: 74 × 15
#>    start               end                 eventId        eventType   lat    lon
#>    <dttm>              <dttm>              <chr>          <chr>     <dbl>  <dbl>
#>  1 2019-08-05 07:57:25 2019-08-07 14:33:40 86eadd44ab4a9… port_vis… 14.6  -17.4 
#>  2 2019-07-09 09:31:01 2019-07-13 13:19:15 557fe44f868f3… port_vis…  5.23  -3.97
#>  3 2016-03-03 05:47:02 2016-03-03 11:46:33 4a7f8049e265e… port_vis…  5.20  -4.02
#>  4 2015-12-29 14:52:13 2016-01-03 16:38:59 ecd93cc08b521… port_vis…  5.29  -4.01
#>  5 2018-09-19 06:32:12 2018-09-22 11:02:34 04989af5b8533… port_vis…  5.23  -3.97
#>  6 2019-11-15 14:15:11 2019-11-19 07:49:20 bbeed3f884a6f… port_vis…  5.20  -4.02
#>  7 2019-09-29 05:40:18 2019-10-02 17:16:39 baa809792afe6… port_vis… 14.6  -17.4 
#>  8 2016-03-31 04:43:41 2016-04-02 09:07:10 617db86945865… port_vis…  5.20  -4.02
#>  9 2018-11-06 17:27:26 2018-11-11 09:43:00 a1e988d982768… port_vis…  5.23  -4.02
#> 10 2017-05-13 07:10:29 2017-05-13 09:11:40 757664f40518d… port_vis… 14.7  -17.3 
#> # ℹ 64 more rows
#> # ℹ 9 more variables: regions <list>, boundingBox <list>, distances <list>,
#> #   vesselId <chr>, vessel_name <chr>, vessel_ssvid <chr>, vessel_flag <chr>,
#> #   vessel_type <chr>, event_info <list>
…
This list returns 6592 vesselIds belonging to 4144
vessels.

usa_trawlers$selfReportedInfo
#> # A tibble: 6,592 × 14
#>    index vesselId  ssvid shipname nShipname flag  callsign imo   messagesCounter
#>    <dbl> <chr>     <chr> <chr>    <chr>     <chr> <chr>    <chr>           <int>
#>  1     1 c698dfcc… 3677… TREMONT  TREMONT   USA   WDJ5556  NA              71116
#>  2     2 64907178… 3662… SUSAN L  SUSANL    USA   WQZ4631  NA            1539173
#>  3     3 5e6c03ec… 3682… CAPTAIN… CAPTAINT… USA   WDN3761  NA             786924
#>  4     3 045a49e9… 3680… AMG      AMG       USA   WDK2542  NA               9964
#>  5     3 161cee78… 3677… ATLANTI… ATLANTIS1 USA   WDI5729  NA               3288
#>  6     4 242fa3fb… 3670… TAUNY A… TAUNYANN  USA   WDC4097  NA            2038373
#>  7     5 0dddd2a8… 3673… SHAMROCK SHAMROCK  USA   WDD8722  NA               2720
#>  8     5 695b254f… 3673… SHAMROCK SHAMROCK  USA   NA       NA                477
#>  9     5 ac994bda… 3673… NA       NA        USA   WDD8722  NA               3179
#> 10     6 47b94476… 3668… ORION    ORION     USA   NA       NA              23007
#> # ℹ 6,582 more rows
#> # ℹ 5 more variables: positionsCounter <int>, sourceCode <list>,
#> #   matchFields <chr>, transmissionDateFrom <chr>, transmissionDateTo <chr>

For clarity, we should try to send groups of vesselIds
that belong to the same vessels. For this, we should check the
index column in the $selfReportedInfo
dataset.

Note: get_event() can receive up to 20 vessel
ids at a time

each_USA_trawler <- usa_trawlers$selfReportedInfo[, c("index", "vesselId")] 
# how many vessels correspond to the first ten vessels. 
each_USA_trawler %>% filter(index <= 10)
#> # A tibble: 21 × 2
#>    index vesselId                             
#>    <dbl> <chr>                                
#>  1     1 c698dfcc5-5c85-9329-b1ac-8b3656ea9233
#>  2     2 64907178b-b02a-f401-afa1-b3a099d7a142
#>  3     3 5e6c03ecd-d774-2d00-6b39-21ab335fca3b
#>  4     3 045a49e97-7d67-6ef7-219c-fd1a270af740
#>  5     3 161cee78f-f568-b97e-cb75-5348a2d811ba
#>  6     4 242fa3fbf-fa03-eb47-5855-f0880b8e7acf
#>  7     5 0dddd2a83-3626-24f1-0fe6-3c4d45bbb409
#>  8     5 695b254f7-7e6c-ff50-dc63-55139d9e0101
#>  9     5 ac994bdab-b59c-9fcc-659e-40179e5dddfb
#> 10     6 47b944765-5819-b2ab-8c2e-cfc82bd2e82c
#> # ℹ 11 more rows
…
The first 20 vesselIds correspond to 10 vessels
according to index.

Let’s pass the vector of vessel ids to Events API. Now get the list
of fishing events for these trawlers in January, 2020:

events <- get_event(event_type = 'FISHING',
                    vessels = ten_usa_trawlers$vesselId,
                    start_date = "2020-01-01", 
                    end_date = "2020-02-01", 
                    key = key)
#> [1] "Downloading 31 events from GFW"
events
#> # A tibble: 31 × 16
#>    start               end                 eventId         eventType   lat   lon
#>    <dttm>              <dttm>              <chr>           <chr>     <dbl> <dbl>
#>  1 2020-01-21 18:13:58 2020-01-22 00:01:04 1ad29cb3dcfcaf… fishing    38.0 -73.9
#>  2 2020-01-29 06:29:45 2020-01-29 21:15:18 4ffea71b304a65… fishing    38.0 -73.9
#>  3 2020-01-09 21:14:43 2020-01-10 10:16:36 c60e52370d48a7… fishing    38.1 -73.8
#>  4 2020-01-10 18:21:53 2020-01-12 03:13:04 6739137b68e5fb… fishing    38.0 -73.9
#>  5 2020-01-22 03:07:24 2020-01-23 03:57:57 7812ab3b7950fc… fishing    38.0 -73.9
#>  6 2020-01-24 14:05:32 2020-01-24 22:02:36 761b7338d7e866… fishing    38.0 -74.0
#>  7 2020-01-21 10:19:37 2020-01-21 15:31:33 b07cba0b120d99… fishing    38.1 -73.9
#>  8 2020-01-09 12:30:54 2020-01-09 17:44:54 51c5140b261fca… fishing    38.4 -73.5
#>  9 2020-01-23 11:55:49 2020-01-23 22:03:58 6662cc521a4c81… fishing    38.0 -73.9
#> 10 2020-01-30 12:02:27 2020-01-30 21:34:23 9e8b988bfdfa30… fishing    38.0 -73.9
#> # ℹ 21 more rows
#> # ℹ 10 more variables: regions <list>, boundingBox <list>, distances <list>,
#> #   vesselId <chr>, vessel_name <chr>, vessel_ssvid <chr>, vessel_flag <chr>,
#> #   vessel_type <chr>, vessel_publicAuthorizations <list>, event_info <list>

The columns starting by vessel have the vessel-related
information for each event: vesselId,
vessel_name, ssvid (MMSI), flag,
vessel type and public authorizations.

events %>% 
  dplyr::select(starts_with("vessel"))
#> # A tibble: 31 × 6
#>    vesselId                     vessel_name vessel_ssvid vessel_flag vessel_type
#>    <chr>                        <chr>       <chr>        <chr>       <chr>      
#>  1 64907178b-b02a-f401-afa1-b3… SUSAN L     366211560    USA         fishing    
#>  2 64907178b-b02a-f401-afa1-b3… SUSAN L     366211560    USA         fishing    
#>  3 64907178b-b02a-f401-afa1-b3… SUSAN L     366211560    USA         fishing    
#>  4 64907178b-b02a-f401-afa1-b3… SUSAN L     366211560    USA         fishing    
#>  5 64907178b-b02a-f401-afa1-b3… SUSAN L     366211560    USA         fishing    
#>  6 64907178b-b02a-f401-afa1-b3… SUSAN L     366211560    USA         fishing    
#>  7 64907178b-b02a-f401-afa1-b3… SUSAN L     366211560    USA         fishing    
#>  8 64907178b-b02a-f401-afa1-b3… SUSAN L     366211560    USA         fishing    
#>  9 64907178b-b02a-f401-afa1-b3… SUSAN L     366211560    USA         fishing    
#> 10 64907178b-b02a-f401-afa1-b3… SUSAN L     366211560    USA         fishing    
#> # ℹ 21 more rows
#> # ℹ 1 more variable: vessel_publicAuthorizations <list>
…
  start_date = '2021-01-01',
  end_date = '2021-02-01',
  region = test_shape,
  region_source = 'USER_SHAPEFILE',
  key = key
  )
#> Rows: 2682 Columns: 6
#> ── Column specification ────────────────────────────────────────────────────────
#> Delimiter: ","
#> chr (1): flag
#> dbl (5): Lat, Lon, Time Range, Vessel IDs, Apparent Fishing Hours
#> 
#> ℹ Use `spec()` to retrieve the full column specification for this data.
#> ℹ Specify the column types or set `show_col_types = FALSE` to quiet this message.
#> # A tibble: 2,682 × 6
#>      Lat   Lon `Time Range` flag  `Vessel IDs` `Apparent Fishing Hours`
#>    <dbl> <dbl>        <dbl> <chr>        <dbl>                    <dbl>
#>  1  16.8  60.6         2021 CHN              1                     6.1 
#>  2  16.7  60.6         2021 CHN              1                    10.1 
#>  3  16.7  60.7         2021 CHN              1                     3.46
#>  4  17.2  61.5         2021 CHN              1                     2.96
#>  5  16.6  61.7         2021 CHN              1                     5.88
#>  6  16.7  61.7         2021 CHN              1                     5.44
#>  7  16.6  61.6         2021 CHN              1                    16.6 
#>  8  17    62.4         2021 CHN              1                     1.64
#>  9  16.9  62.4         2021 CHN              1                     6.38
#> 10  16.9  62.3         2021 CHN              1                     7.85
#> # ℹ 2,672 more rows
…
           group_by = 'FLAG',
           start_date = "2021-01-01",
           end_date = "2021-10-01",
           region = code_eez$id,
           region_source = 'EEZ',
           key = key)
#> Rows: 596 Columns: 6
#> ── Column specification ────────────────────────────────────────────────────────
#> Delimiter: ","
#> chr (1): flag
#> dbl (5): Lat, Lon, Time Range, Vessel IDs, Apparent Fishing Hours
#> 
#> ℹ Use `spec()` to retrieve the full column specification for this data.
#> ℹ Specify the column types or set `show_col_types = FALSE` to quiet this message.
#> # A tibble: 596 × 6
#>      Lat   Lon `Time Range` flag  `Vessel IDs` `Apparent Fishing Hours`
#>    <dbl> <dbl>        <dbl> <chr>        <dbl>                    <dbl>
#>  1   1.5  -6.6         2021 CPV              1                     3.97
#>  2   4    -6.9         2021 FRA              1                     7.4 
#>  3   5.2  -4           2021 ESP              9                    13.6 
#>  4   4.3  -4.1         2021 FRA              2                     3.57
#>  5   3.7  -4           2021 ESP              1                     0.94
#>  6   4.5  -3.8         2021 SLV              1                     8.13
#>  7   3.4  -3.9         2021 BES              1                     1.65
#>  8   5    -5.3         2021 CHN              2                    43.0 
#>  9   4.6  -5.2         2021 GHA              1                     2.97
#> 10   4.4  -3.9         2021 SEN              1                     1.84
#> # ℹ 586 more rows
…
           group_by = 'FLAG',
           start_date = "2021-01-01",
           end_date = "2021-10-01",
           region = 5677,
           region_source = 'EEZ',
           key = key)
#> Rows: 5433 Columns: 6
#> ── Column specification ────────────────────────────────────────────────────────
#> Delimiter: ","
#> chr (1): flag
#> dbl (5): Lat, Lon, Time Range, Vessel IDs, Apparent Fishing Hours
#> 
#> ℹ Use `spec()` to retrieve the full column specification for this data.
#> ℹ Specify the column types or set `show_col_types = FALSE` to quiet this message.
#> # A tibble: 5,433 × 6
#>      Lat   Lon `Time Range` flag  `Vessel IDs` `Apparent Fishing Hours`
#>    <dbl> <dbl>        <dbl> <chr>        <dbl>                    <dbl>
#>  1  51     1.4         2021 NLD              5                     8.62
#>  2  50.9   1.4         2021 FRA             28                   885.  
#>  3  50.9   1.3         2021 FRA             23                    87   
#>  4  50.8   1.3         2021 BEL              1                     4.86
#>  5  50.8   1.3         2021 FRA             39                   685.  
#>  6  50.8   1.2         2021 GBR             11                   255.  
#>  7  50.7   1.4         2021 FRA             53                  2669.  
#>  8  51.5   2.1         2021 BEL              1                     7.04
#>  9  51.3   2.1         2021 NLD             19                    97.2 
#> 10  51.2   1.9         2021 FRA             20                   560.  
#> # ℹ 5,423 more rows
…
           group_by = 'FLAG',
           start_date = "2015-01-01",
           end_date = "2015-06-01",
           region = code_mpa$id[1],
           region_source = 'MPA',
           key = key)
#> Rows: 38 Columns: 6
#> ── Column specification ────────────────────────────────────────────────────────
#> Delimiter: ","
#> chr (1): flag
#> dbl (5): Lat, Lon, Time Range, Vessel IDs, Apparent Fishing Hours
#> 
#> ℹ Use `spec()` to retrieve the full column specification for this data.
#> ℹ Specify the column types or set `show_col_types = FALSE` to quiet this message.
#> # A tibble: 38 × 6
#>      Lat   Lon `Time Range` flag  `Vessel IDs` `Apparent Fishing Hours`
#>    <dbl> <dbl>        <dbl> <chr>        <dbl>                    <dbl>
#>  1  -3.6 -176.         2015 KIR              1                     6.07
#>  2  -3.1 -176.         2015 KOR              1                     0.91
#>  3  -3.4 -176.         2015 KOR              1                     2.38
#>  4  -3.5 -176.         2015 KOR              1                     9.74
#>  5  -3.6 -176.         2015 KOR              2                     9.34
#>  6  -3.6 -176.         2015 KOR              1                     1.98
#>  7  -3.6 -176.         2015 KOR              1                     7.9 
#>  8  -4.2 -176.         2015 KOR              1                     0.05
#>  9  -1   -170.         2015 KOR              1                     2.39
#> 10  -2.2 -176.         2015 KIR              1                     1.89
#> # ℹ 28 more rows
…
           start_date = "2021-01-01",
           end_date = "2021-01-04",
           region = 'ICCAT',
           region_source = 'RFMO',
           key = key)
#> Rows: 16709 Columns: 6
#> ── Column specification ────────────────────────────────────────────────────────
#> Delimiter: ","
#> chr  (1): flag
#> dbl  (4): Lat, Lon, Vessel IDs, Apparent Fishing Hours
#> date (1): Time Range
#> 
#> ℹ Use `spec()` to retrieve the full column specification for this data.
#> ℹ Specify the column types or set `show_col_types = FALSE` to quiet this message.
#> # A tibble: 16,709 × 6
#>      Lat   Lon `Time Range` flag  `Vessel IDs` `Apparent Fishing Hours`
#>    <dbl> <dbl> <date>       <chr>        <dbl>                    <dbl>
#>  1  69.4 -58.5 2021-01-01   GRL              1                     4.03
#>  2  69.4 -58.4 2021-01-01   GRL              1                     1.26
#>  3  69.3 -58.4 2021-01-01   GRL              1                     3.21
#>  4  69.1 -58.5 2021-01-01   GRL              1                     1.24
#>  5  69.1 -58.4 2021-01-01   GRL              1                     1.05
#>  6  69   -58.5 2021-01-01   GRL              2                     5.71
#>  7  69   -58.4 2021-01-01   GRL              1                     0.71
#>  8  67.8 -56.6 2021-01-03   GRL              2                     1.78
#>  9  67.7 -56.6 2021-01-02   GRL              3                    39.6 
#> 10  67.8 -56.6 2021-01-02   GRL              1                     1.25
#> # ℹ 16,699 more rows
…
