Making maps with `gfwr` • gfwr
…
The gfwr function gfw_ais_fishing_hours()
provides aggregated gridded (e.g. raster) data for AIS-based apparent
fishing effort. It was designed to provide data for a specific region,
offering users the ability to select from multiple built-in region types
by specifying a specific Exclusive Economic Zone (EEZ), Marine Protected
Area (MPA), or Regional Fisheries Management Organization (RFMO).

The list of available regions for each type, and their
label and id, can be accessed with the
gfw_regions() function.

eez_regions <- gfw_regions(region_source = 'EEZ')

eez_regions
#> # A tibble: 285 × 5
#>    iso   label                          id GEONAME                      POL_TYPE
#>    <chr> <chr>                       <dbl> <chr>                        <chr>   
#>  1 ASM   American Samoa               8444 United States Exclusive Eco… 200NM   
#>  2 SHN   Ascension                    8379 British Exclusive Economic … 200NM   
#>  3 COK   Cook Islands                 8446 New Zealand Exclusive Econo… 200NM   
#>  4 FLK   Falkland / Malvinas Islands  8389 Overlapping claim Falkland … Overlap…
#>  5 PYF   French Polynesia             8440 French Exclusive Economic Z… 200NM   
#>  6 PCN   Pitcairn                     8439 British Exclusive Economic … 200NM   
#>  7 SHN   Saint Helena                 8380 British Exclusive Economic … 200NM   
#>  8 WSM   Samoa                        8445 Samoan Exclusive Economic Z… 200NM   
#>  9 TON   Tonga                        8448 Tongan Exclusive Economic Z… 200NM   
#> 10 SHN   Tristan da Cunha             8382 British Exclusive Economic … 200NM   
#> # ℹ 275 more rows
…
In this case, let’s request data during our time range at 100th
degree resolution and grouped by flag State:

# Download data for the Italian EEZ
eez_fish_df <- gfw_ais_fishing_hours(
  spatial_resolution = "HIGH",
  temporal_resolution = "YEARLY",
  group_by = "FLAG",
  start_date = start_date,
  end_date = end_date,
  region = ita_eez_code$id,
  region_source = "EEZ"
  )

#> # A tibble: 69,557 × 6
#>      Lat   Lon `Time Range` flag  `Vessel IDs` `Apparent Fishing Hours`
#>    <dbl> <dbl>        <dbl> <chr>        <dbl>                    <dbl>
#>  1  42.8 14.2          2021 ITA              9                    36.9 
#>  2  44.0 13.2          2021 ITA              5                     8.3 
#>  3  41.9 12.0          2021 ITA              7                     9.13
#>  4  42.1 16.1          2021 ITA              4                     4.83
#>  5  40.8 14.0          2021 ITA              7                    22.4 
#>  6  42.1 15.8          2021 ITA              4                     5.97
#>  7  41.9 16.3          2021 ITA              2                     6.3 
#>  8  42.3 15.8          2021 ITA              6                     6.76
#>  9  41.3 13.0          2021 ITA              5                    11.0 
#> 10  39.1  9.19         2021 ITA              1                     1.03
#> # ℹ 69,547 more rows
…
# Download data for the IOTC
iotc_fish_df <- gfw_ais_fishing_hours(
  spatial_resolution = "LOW",
  temporal_resolution = "YEARLY",
  group_by = "GEARTYPE",
  start_date = start_date,
  end_date = end_date,
  region = "IOTC",
  region_source = "RFMO"
  )

#> # A tibble: 106,054 × 6
#>      Lat   Lon `Time Range` geartype         `Vessel IDs` Apparent Fishing Hou…¹
#>    <dbl> <dbl>        <dbl> <chr>                   <dbl>                  <dbl>
#>  1 -19    43.3         2021 drifting_longli…            2                   9.82
#>  2 -20    57.4         2021 fishing                     1                   3.39
#>  3 -15.2 115.          2021 drifting_longli…            1                   2.96
#>  4  -5.6  50.1         2021 drifting_longli…            5                  10.1 
#>  5  18.4  71.6         2021 drifting_longli…            2                  39.2 
#>  6  15.9  61.8         2021 squid_jigger                2                   9.84
#>  7 -14.1  61.2         2021 set_longlines               3                  14.6 
#>  8  -3.1  57.3         2021 drifting_longli…            1                   0.97
#>  9  -8.7  86.5         2021 drifting_longli…            4                   7.18
#> 10  14.4  81.2         2021 drifting_longli…            4                  26.2 
#> # ℹ 106,044 more rows
#> # ℹ abbreviated name: ¹​`Apparent Fishing Hours`
…
