List of available regions — get_regions • gfwr
…
region_source
string, source of region data ('eez', 'mpa', 'rfmo')

key
string, API token

    Value

    dataframe, all region ids and names for specified region type

    Examples

get_regions(region_source = "EEZ")
#> # A tibble: 282 × 3
#>       id label                                                         iso3 
#>    <int> <chr>                                                         <chr>
#>  1  5675 Estonia                                                       EST  
#>  2 48944 Mayotte                                                       FRA  
#>  3 50170 Overlapping claim Qatar / Saudi Arabia / United Arab Emirates QAT  
#>  4  8475 Cameroon                                                      CMR  
#>  5  5676 Finland                                                       FIN  
#>  6  8340 Bassas da India                                               FRA  
#>  7  8435 Faeroe                                                        DNK  
#>  8  8488 Gilbert Islands                                               KIR  
#>  9 48971 Overlapping claim: Venezuela / Colombia / Dominican Republic  COL  
#> 10  8474 Nigeria                                                       NGA  
#> # ℹ 272 more rows
get_regions(region_source = "RFMO")
#> # A tibble: 42 × 3
#>    label    id       RFB     
#>    <chr>    <chr>    <chr>   
#>  1 ACAP     ACAP     ACAP    
#>  2 APFIC    APFIC    APFIC   
#>  3 BOBP-IGO BOBP-IGO BOBP-IGO
#>  4 CACFISH  CACFISH  CACFISH 
#>  5 CCAMLR   CCAMLR   CCAMLR  
#>  6 CCBSP    CCBSP    CCBSP   
#>  7 COREP    COREP    COREP   
#>  8 CPPS     CPPS     CPPS    
#>  9 CRFM     CRFM     CRFM    
#> 10 CTMFM    CTMFM    CTMFM   
#> # ℹ 32 more rows
get_regions(region_source = "MPA")
#> # A tibble: 16,652 × 3
#>    label                                                 id    NAME             
#>    <chr>                                                 <chr> <chr>            
#>  1 Diamond Reef and Salt Fish Tail Reef - Marine Reserve 1     Diamond Reef and…
#>  2 Palaster Reef - Marine Reserve                        2     Palaster Reef    
#>  3 Folkstone - Marine Reserve                            27    Folkstone        
#>  4 Reserva Biológica Atol Das Rocas - Reserva Biológica  46    Reserva Biológic…
#>  5 Parque Nacional Do Cabo Orange - Parque               57    Parque Nacional …
#>  6 RMS Rhone - Marine Park                               78    RMS Rhone        
#>  7 West Dog - National Park                              80    West Dog         
#>  8 Archipielago Juan Fernadez - Parque Nacional          97    Archipielago Jua…
#>  9 Archipielago Juan Fernández - Reserva Biósfera        121   Archipielago Jua…
#> 10 Los Flamencos - Santuario de Fauna y Flora            126   Los Flamencos    
#> # ℹ 16,642 more rows
…
