Base function to get vessel information from API and convert response to data frame — get_vessel_info • gfwr
…
#> 
#> $registryOwners
#> # A tibble: 7 × 6
#>   name                 flag  ssvid     sourceCode dateFrom             dateTo   
#>   <chr>                <chr> <chr>     <list>     <chr>                <chr>    
#> 1 SEIN SHIPPING        KOR   441618000 <chr [1]>  2019-06-03T02:45:59Z 2024-04-…
#> 2 BAY PHOENIX SHIPPING NLD   356234000 <chr [1]>  2019-02-20T08:43:43Z 2019-06-…
#> 3 GREY SHIPPING        CUW   636018500 <chr [1]>  2018-11-12T09:19:22Z 2019-02-…
#> 4 GREY SHIPPING        CUW   3530564   <chr [1]>  2018-06-25T02:30:55Z 2018-11-…
#> 5 GREY SHIPPING        CUW   636018500 <chr [1]>  2018-02-18T06:26:20Z 2018-06-…
#> 6 GREY SHIPPING        CUW   636092423 <chr [1]>  2014-11-06T13:05:34Z 2018-02-…
#> 7 GREY SHIPPING        CUW   636015543 <chr [1]>  2014-01-01T00:04:16Z 2014-11-…
#> 
#> $registryPublicAuthorizations
#> # A tibble: 26 × 4
#>    dateFrom             dateTo               ssvid     sourceCode
#>    <chr>                <chr>                <chr>     <list>    
#>  1 2019-07-25T00:00:00Z 2024-05-01T00:00:00Z 441618000 <chr [1]> 
#>  2 2021-11-15T00:00:00Z 2024-05-01T00:00:00Z 441618000 <chr [1]> 
#>  3 2022-01-11T00:00:00Z 2024-05-01T00:00:00Z 441618000 <chr [1]> 
#>  4 2019-07-09T00:00:00Z 2024-05-01T00:00:00Z 441618000 <chr [1]> 
#>  5 2022-03-16T00:00:00Z 2023-12-31T00:00:00Z 441618000 <chr [1]> 
#>  6 2019-06-21T00:00:00Z 2020-06-01T00:00:00Z 441618000 <chr [1]> 
#>  7 2016-02-10T01:22:39Z 2019-03-19T13:38:48Z 3530564   <chr [1]> 
#>  8 2016-02-10T01:22:39Z 2019-03-19T13:38:48Z 636015543 <chr [1]> 
#>  9 2016-02-10T01:22:39Z 2019-03-19T13:38:48Z 636018500 <chr [1]> 
#> 10 2016-02-10T01:22:39Z 2019-03-19T13:38:48Z 636092423 <chr [1]> 
#> # ℹ 16 more rows
…
